blog package
============

Subpackages
-----------

.. toctree::

    blog.migrations
    blog.templatetags

Submodules
----------

blog.admin module
-----------------

.. automodule:: blog.admin
    :members:
    :undoc-members:
    :show-inheritance:

blog.apps module
----------------

.. automodule:: blog.apps
    :members:
    :undoc-members:
    :show-inheritance:

blog.models module
------------------

.. automodule:: blog.models
    :members:
    :undoc-members:
    :show-inheritance:

blog.tests module
-----------------

.. automodule:: blog.tests
    :members:
    :undoc-members:
    :show-inheritance:

blog.urls module
----------------

.. automodule:: blog.urls
    :members:
    :undoc-members:
    :show-inheritance:

blog.views module
-----------------

.. automodule:: blog.views
    :members:
    :undoc-members:
    :show-inheritance:

blog.wsgi module
----------------

.. automodule:: blog.wsgi
    :members:
    :undoc-members:
    :show-inheritance:


Module contents
---------------

.. automodule:: blog
    :members:
    :undoc-members:
    :show-inheritance:
