.. Data Transformers documentation master file, created by
   sphinx-quickstart on Wed Oct 31 21:27:09 2018.
   You can adapt this file completely to your liking, but it should at least
   contain the root `toctree` directive.

Welcome to Data Transformers's documentation!
=============================================

.. toctree::
   :maxdepth: 2
   :caption: Contents:



Indices and tables
==================

* :ref:`genindex`
* :ref:`modindex`
* :ref:`search`
